[
    {
        "id":1,
        "name":"Zawsze czujny",
        "description":"Jednostka może atakować i używać umiejętności kosztujących nałożenie punktów przeciążenia systemu w rundzie w której weszła na pole bitwy."
    },
	{
        "id":2,
        "name":"nazwa test",
        "description":"opis test"
    }
]